7,1210.TW,紅K,1210 大成,39.45,,年關鍵min:2019-07-18(39.1),月↗,季↘,壓過季均(38.925)+年均(39.1442)、跳跨季均(38.925)+年均(39.1442)
7,1515.TW,紅K,1515 力山,66.5,,月關鍵max:2020-04-20(66.5),季關鍵max:2020-01-30(65.7),季關鍵min:2020-02-14(61.4),月↗,季↘,壓過月關鍵(66.5)+季關鍵(65.7)、跳跨月關鍵(66.5)+季關鍵(65.7)
7,1589.TW,紅K,1589 永冠-KY,61.6,,年關鍵min:2019-06-26(60.6),月↗,季↗,跳跨月關鍵(59.9)+年關鍵(59.9)
7,1598.TW,紅K,1598 岱宇,36.8,,月關鍵max:2020-04-20(36.8),年關鍵min:2019-04-26(36.3),月↗,季↘,壓過季均(35.8033)、跳跨季均(35.8033)、壓過月關鍵(36.8)、跳跨月關鍵(36.8)
7,1701.TW,綠K,1701 中化,20.9,,季關鍵max:2020-01-31(21.0),月↗,季↗,壓過季關鍵(21.0)、跳跨季關鍵(21.0)
7,1752.TW,紅K,1752 南光,42.5,,月關鍵min:2020-04-14(42.0),季關鍵min:2020-01-17(42.2),月↗,季－,
7,1760.TW,紅K,1760 寶齡富錦,93.5,,月關鍵max:2020-04-20(93.5),月↗,季－,跳跨年均(87.0421)、壓過月關鍵(93.5)、跳跨月關鍵(93.5)
7,1762.TW,綠K,1762 中化生,44.35,,月關鍵max:2020-04-20(44.35),月↗,季↗,壓過月關鍵(44.35)、跳跨月關鍵(44.35)
7,1784.TW,紅K,1784 訊聯,34.25,,月關鍵max:2020-04-20(34.25),月↗,季↘,壓過季均(33.7133)、跳跨季均(33.7133)、壓過月關鍵(34.25)、跳跨月關鍵(34.25)
7,1789.TW,紅K,1789 神隆,29.4,,月關鍵max:2020-04-14(29.4),月↗,季↗,壓過月關鍵(29.4)、跳跨月關鍵(29.4)
7,1904.TW,紅K,1904 正隆,21.0,,季關鍵max:2020-02-07(20.8),月↗,季↗,壓過季均(20.9083)、壓過季關鍵(20.8)
7,2049.TW,綠K,2049 上銀,248.0,,月關鍵min:2020-04-20(248.0),月↗,季↘,
7,2062.TW,紅K,2062 橋椿,24.3,,月關鍵max:2020-04-20(24.3),月↗,季↘,壓過月關鍵(24.3)、跳跨月關鍵(24.3)
7,2108.TW,紅K,2108 南帝,29.2,,月關鍵max:2020-04-08(29.0),月關鍵min:2020-04-16(28.75),月↗,季↘,壓過季均(28.515)、壓過月關鍵(29.0)、跳跨月關鍵(29.0)
7,2228.TW,紅K,2228 劍麟,88.5,,月關鍵max:2020-04-15(88.3),年關鍵min:2019-06-28(87.9),月↗,季↘,壓過月關鍵(88.3)、跳跨月關鍵(88.3)
7,2231.TW,綠K,2231 為升,144.0,,月關鍵max:2020-04-16(145.5),月↗,季↘,壓過月關鍵(145.5)
7,2337.TW,紅K,2337 旺宏,31.6,,月關鍵max:2020-04-08(31.4),月↗,季↘,壓過月關鍵(31.4)、跳跨月關鍵(31.4)
7,2342.TW,綠K,2342 茂矽,24.5,,月關鍵max:2020-04-10(24.9),月↗,季↗,壓過月關鍵(24.9)
7,2356.TW,紅K,2356 英業達,23.7,,年關鍵max:2019-07-11(23.65),月↗,季↗,壓過年關鍵(23.65)、跳跨月關鍵(23.6)+年關鍵(23.65)
7,2360.TW,綠K,2360 致茂,132.5,,月關鍵max:2020-04-15(137.5),月↗,季↘,壓過月關鍵(137.5)、跳跨月關鍵(137.5)
7,2371.TW,綠K,2371 大同,22.45,,月關鍵max:2020-04-15(22.5),月關鍵min:2020-04-20(22.45),月↗,季↗,壓過月關鍵(22.5)、跳跨月關鍵(22.5)
7,2375.TW,綠K,2375 凱美,33.9,,月關鍵max:2020-04-09(33.95),月↗,季↘,壓過月關鍵(33.95)
7,2375.TW,綠K,2375 凱美,33.9,,月關鍵max:2020-04-09(33.95),月↗,季↘,壓過月關鍵(33.95)
7,2376.TW,紅K,2376 技嘉,54.5,,年關鍵max:2019-06-27(53.4),月↗,季↗,壓過年關鍵(53.4)、跳跨年關鍵(53.4)
7,2387.TW,綠K,2387 精元,32.0,,月關鍵min:2020-04-20(32.0),月↗,季↘,
7,2388.TW,紅K,2388 威盛,31.3,,月關鍵max:2020-04-16(30.45),季關鍵min:2020-02-17(30.4),月↗,季↘,壓過月關鍵(30.45)、跳跨月關鍵(30.45)
7,2392.TW,紅K,2392 正崴,35.45,,月關鍵min:2020-04-20(35.45),月↗,季↘,壓過季均(35.3967)、跳跨季均(35.3967)
7,2408.TW,綠K,2408 南亞科,60.8,,月關鍵min:2020-04-20(60.8),年關鍵min:2019-05-22(60.8),月↗,季↘,
7,2412.TW,紅K,2412 中華電,109.0,,季關鍵max:2020-01-30(108.5),月↗,季－,壓過季關鍵(108.5)、跳跨季關鍵(108.5)
7,2421.TW,綠K,2421 建準,37.5,,月關鍵min:2020-04-20(37.5),月↗,季↘,壓過年均(37.8296)
7,2439.TW,綠K,2439 美律,132.0,,月關鍵max:2020-04-17(132.0),月↗,季↘,壓過月關鍵(132.0)、跳跨月關鍵(132.0)
7,2448.TW,紅K,2448 晶電,33.7,,月關鍵max:2020-04-20(33.7),季關鍵min:2020-02-14(32.9),月↗,季↗,壓過月關鍵(33.7)、跳跨月關鍵(33.7)
7,2451.TW,綠K,2451 創見,70.8,,月關鍵max:2020-04-20(70.8),月↗,季↘,壓過年均(70.85)、壓過月關鍵(70.8)、跳跨月關鍵(70.8)
7,2454.TW,綠K,2454 聯發科,370.0,,月關鍵min:2020-04-20(370.0),月↗,季↘,
7,2472.TW,綠K,2472 立隆電,38.2,,月關鍵max:2020-04-17(39.0),季關鍵min:2020-02-19(38.75),月↗,季↘,壓過月關鍵(39.0)、跳跨月關鍵(39.0)
7,2633.TW,紅K,2633 台灣高鐵,32.35,,月關鍵min:2020-04-20(32.35),月↗,季↘,
7,2634.TW,綠K,2634 漢翔,27.8,,月關鍵min:2020-04-20(27.8),月↗,季↘,
7,2881.TW,綠K,2881 富邦金,40.1,,月關鍵min:2020-04-20(40.1),月↗,季↘,
7,2884.TW,綠K,2884 玉山金,26.2,,月關鍵min:2020-04-20(26.2),月↗,季↘,
7,2892.TW,綠K,2892 第一金,20.85,,月關鍵min:2020-04-20(20.85),月↗,季↘,
7,3016.TW,紅K,3016 嘉晶,51.0,,月關鍵min:2020-04-10(50.8),月↗,季↘,
7,3019.TW,紅K,3019 亞光,70.4,,月關鍵max:2020-04-14(69.7),月↗,季↘,壓過月關鍵(69.7)、跳跨月關鍵(69.7)
7,3026.TW,紅K,3026 禾伸堂,111.0,,季關鍵max:2020-02-07(108.5),季關鍵min:2020-01-20(108.5),月↗,季↗,壓過季關鍵(108.5)、跳跨季關鍵(108.5)
7,3037.TW,綠K,3037 欣興,38.1,,月關鍵min:2020-04-20(38.1),月↗,季↘,
7,3045.TW,紅K,3045 台灣大,107.0,,季關鍵max:2020-01-30(107.0),月↗,季↘,壓過季關鍵(107.0)、跳跨季關鍵(107.0)
7,3056.TW,綠K,3056 總太,30.75,,月關鍵min:2020-04-16(30.8),月↗,季↘,
7,3078.TW,綠K,3078 僑威,22.4,,月關鍵max:2020-04-17(22.75),月↗,季↘,跳跨季均(22.4125)、壓過月關鍵(22.75)、跳跨月關鍵(22.75)
7,3081.TW,紅K,3081 聯亞,266.0,,月關鍵min:2020-04-01(260.0),月↗,季↘,壓過季均(265.7833)+年均(260.6417)、跳跨季均(265.7833)+年均(260.6417)、跳跨月關鍵(258.0)
7,3221.TW,紅K,3221 台嘉碩,20.75,,月關鍵max:2020-04-16(19.45),月↗,季↘,壓過季均(20.1925)、跳跨季均(20.1925)、壓過月關鍵(19.45)、跳跨月關鍵(19.45)
7,3227.TW,紅K,3227 原相,172.0,,月關鍵max:2020-04-15(171.5),月關鍵min:2020-04-20(172.0),月↗,季↗,壓過月關鍵(171.5)、跳跨月關鍵(171.5)
7,3289.TW,紅K,3289 宜特,40.3,,月關鍵max:2020-04-17(39.35),季關鍵min:2020-02-17(40.15),年關鍵min:2019-06-12(40.0),月↗,季↘,壓過月關鍵(39.35)、跳跨月關鍵(39.35)
7,3317.TW,紅K,3317 尼克森,35.35,,月關鍵max:2020-04-16(35.35),月↗,季↘,壓過月關鍵(35.35)、跳跨月關鍵(35.35)
7,3338.TW,紅K,3338 泰碩,89.3,,月關鍵min:2020-04-20(89.3),月↗,季－,
7,3374.TW,綠K,3374 精材,78.6,,月關鍵max:2020-04-17(79.4),月↗,季↘,壓過月關鍵(79.4)、跳跨月關鍵(79.4)
7,3380.TW,紅K,3380 明泰,20.95,,年關鍵max:2019-04-25(20.55),月↗,季↘,壓過年關鍵(20.55)、跳跨年關鍵(20.55)
7,3413.TW,綠K,3413 京鼎,141.5,,月關鍵max:2020-04-17(142.0),月↗,季↘,壓過月關鍵(142.0)、跳跨月關鍵(142.0)
7,3443.TW,紅K,3443 創意,245.0,,月關鍵max:2020-04-17(243.5),月↗,季↘,壓過月關鍵(243.5)、跳跨月關鍵(243.5)
7,3450.TW,紅K,3450 聯鈞,70.1,,月關鍵max:2020-04-16(69.1),月↗,季↗,壓過月關鍵(69.1)、跳跨月關鍵(69.1)
7,3455.TW,綠K,3455 由田,49.5,,月關鍵max:2020-04-17(50.0),月↗,季↘,壓過月關鍵(50.0)、跳跨月關鍵(50.0)
7,3511.TW,紅K,3511 矽瑪,29.75,,月關鍵max:2020-04-06(27.65),月↗,季↘,壓過月關鍵(27.65)、跳跨月關鍵(27.65)
7,3530.TW,紅K,3530 晶相光,88.8,,月關鍵min:2020-04-20(88.8),月↗,季↘,
7,3532.TW,紅K,3532 台勝科,144.5,,月關鍵max:2020-04-20(144.5),季關鍵max:2020-02-19(144.0),月↗,季↗,壓過月均(132.125)、跳跨月均(132.125)、壓過月關鍵(144.5)+季關鍵(144.0)、跳跨月關鍵(144.5)+季關鍵(144.0)
7,3533.TW,綠K,3533 嘉澤,305.0,,月關鍵max:2020-04-17(310.5),月↗,季↘,壓過月關鍵(310.5)、跳跨月關鍵(310.5)
7,3545.TW,綠K,3545 敦泰,31.7,,月關鍵max:2020-04-15(33.0),月↗,季↗,壓過月關鍵(33.0)、跳跨月關鍵(33.0)
7,3583.TW,綠K,3583 辛耘,49.0,,月關鍵max:2020-04-20(49.0),月↗,季↘,壓過月關鍵(49.0)、跳跨月關鍵(49.0)
7,3587.TW,紅K,3587 閎康,71.6,,月關鍵max:2020-04-16(69.0),季關鍵max:2020-02-03(68.7),月↗,季↘,壓過年均(70.9604)、跳跨年均(70.9604)、壓過月關鍵(69.0)+季關鍵(68.7)、跳跨月關鍵(69.0)+季關鍵(68.7)
7,3596.TW,紅K,3596 智易,74.8,,月關鍵min:2020-04-20(74.8),月↗,季↘,
7,3624.TW,紅K,3624 光頡,28.2,,月關鍵max:2020-04-16(27.65),月↗,季↘,壓過月關鍵(27.65)、跳跨月關鍵(27.65)
7,3630.TW,紅K,3630 新鉅科,53.4,,月關鍵max:2020-04-15(53.2),月↗,季↘,壓過月關鍵(53.2)、跳跨月關鍵(53.2)
7,3661.TW,紅K,3661 世芯-KY,241.0,,月關鍵max:2020-04-17(238.0),月↗,季↘,壓過月關鍵(238.0)、跳跨月關鍵(238.0)
7,3680.TW,綠K,3680 家登,148.5,,月關鍵max:2020-04-17(151.0),月↗,季↘,壓過季均(152.8133)、壓過月關鍵(151.0)、跳跨月關鍵(151.0)
7,3702.TW,紅K,3702 大聯大,37.95,,季關鍵max:2020-01-30(37.95),月↗,季↘,壓過季關鍵(37.95)、跳跨季關鍵(37.95)
7,4123.TW,紅K,4123 晟德,46.2,,月關鍵max:2020-04-20(46.2),月↗,季↘,壓過月關鍵(46.2)、跳跨月關鍵(46.2)
7,4128.TW,綠K,4128 中天,20.1,,月關鍵max:2020-04-20(20.1),月↗,季↗,壓過月關鍵(20.1)、跳跨月關鍵(20.1)
7,4142.TW,紅K,4142 國光生,28.65,,月關鍵max:2020-04-09(28.1),季關鍵max:2020-01-30(27.65),月↗,季↗,壓過季均(27.655)、跳跨季均(27.655)、壓過月關鍵(28.1)+季關鍵(27.65)、跳跨月關鍵(28.1)+季關鍵(27.65)
7,4167.TW,紅K,4167 展旺,23.5,,月關鍵max:2020-04-06(23.4),月↗,季↗,壓過月關鍵(23.4)、跳跨月關鍵(23.4)
7,4401.TW,紅K,4401 東隆興,25.4,,月關鍵max:2020-04-20(25.4),月↗,季↘,壓過月關鍵(25.4)、跳跨月關鍵(25.4)
7,4540.TW,紅K,4540 全球傳動,54.1,,月關鍵max:2020-04-20(54.1),月↗,季↗,壓過月關鍵(54.1)、跳跨月關鍵(54.1)
7,4551.TW,紅K,4551 智伸科,136.5,,月關鍵max:2020-04-16(136.5),月↗,季↘,壓過月關鍵(136.5)、跳跨月關鍵(136.5)
7,4906.TW,紅K,4906 正文,20.2,,月關鍵min:2020-04-20(20.2),月↗,季↘,
7,4968.TW,紅K,4968 立積,163.0,,月關鍵max:2020-04-14(158.0),月↗,季↘,壓過月關鍵(158.0)
7,4973.TW,紅K,4973 廣穎,27.0,,月關鍵max:2020-03-30(25.65),月↗,季↘,壓過月關鍵(25.65)、跳跨月關鍵(25.65)
7,5203.TW,綠K,5203 訊連,112.5,,季關鍵max:2020-02-10(113.0),月↗,季↗,壓過季關鍵(113.0)
7,5215.TW,紅K,5215 科嘉-KY,67.2,,季關鍵max:2020-01-20(67.0),月↗,季↗,壓過季關鍵(67.0)、跳跨季關鍵(67.0)
7,5347.TW,綠K,5347 世界,68.0,,月關鍵min:2020-04-20(68.0),月↗,季↘,
7,5483.TW,紅K,5483 中美晶,87.5,,月關鍵max:2020-04-08(86.9),月↗,季↘,壓過年均(87.495)、跳跨年均(87.495)、壓過月關鍵(86.9)、跳跨月關鍵(86.9)
7,5493.TW,紅K,5493 三聯,40.25,,月關鍵max:2020-04-20(40.25),月↗,季－,壓過月關鍵(40.25)、跳跨月關鍵(40.25)
7,5871.TW,紅K,5871 中租-KY,101.0,,月關鍵min:2020-04-20(101.0),月↗,季↘,
7,6147.TW,綠K,6147 頎邦,57.3,,月關鍵max:2020-04-20(57.3),月↗,季↘,跳跨季均(56.7725)、壓過月關鍵(57.3)、跳跨月關鍵(57.3)
7,6153.TW,紅K,6153 嘉聯益,27.4,,月關鍵max:2020-04-15(27.3),月關鍵min:2020-04-20(27.4),月↗,季↘,壓過月關鍵(27.3)、跳跨月關鍵(27.3)
7,6182.TW,紅K,6182 合晶,29.0,,月關鍵max:2020-04-08(28.9),月關鍵min:2020-04-20(29.0),月↗,季↘,壓過月關鍵(28.9)、跳跨月關鍵(28.9)
7,6188.TW,紅K,6188 廣明,32.15,,月關鍵min:2020-04-20(32.15),月↗,季↘,
7,6196.TW,綠K,6196 帆宣,70.2,,月關鍵max:2020-04-17(71.2),月↗,季↘,壓過月關鍵(71.2)、跳跨月關鍵(71.2)
7,6213.TW,綠K,6213 聯茂,143.0,,月關鍵max:2020-04-07(143.0),月↗,季↗,壓過月關鍵(143.0)、跳跨月關鍵(143.0)
7,6251.TW,紅K,6251 定穎,20.4,,月關鍵max:2020-04-20(20.4),月↗,季↗,壓過月關鍵(20.4)、跳跨月關鍵(20.4)
7,6269.TW,綠K,6269 台郡,103.5,,月關鍵min:2020-04-20(103.5),月↗,季↘,
7,6271.TW,綠K,6271 同欣電,114.5,,月關鍵max:2020-04-17(117.5),月↗,季↘,壓過月關鍵(117.5)、跳跨月關鍵(117.5)
7,6274.TW,綠K,6274 台燿,128.5,,季關鍵min:2020-02-10(128.5),月↗,季↘,壓過年均(128.7808)、跳跨年均(128.7808)
7,6285.TW,紅K,6285 啟碁,60.5,,月關鍵min:2020-04-20(60.5),月↗,季↘,
7,6456.TW,紅K,6456 GIS-KY,89.2,,月關鍵max:2020-04-17(87.4),月↗,季↘,壓過月關鍵(87.4)、跳跨月關鍵(87.4)
7,6462.TW,紅K,6462 神盾,166.0,,月關鍵max:2020-04-20(166.0),月關鍵min:2020-04-13(163.5),月↗,季↘,壓過月關鍵(166.0)、跳跨月關鍵(166.0)
7,6488.TW,紅K,6488 環球晶,379.5,,月關鍵min:2020-04-20(379.5),月↗,季－,
7,6504.TW,紅K,6504 南六,190.5,,月關鍵max:2020-04-20(190.5),月↗,季↗,壓過月關鍵(190.5)、跳跨月關鍵(190.5)
7,6505.TW,綠K,6505 台塑化,81.7,,月關鍵min:2020-04-10(82.3),月↗,季↘,
7,6547.TW,紅K,6547 高端疫苗,47.9,,月關鍵max:2020-04-20(47.9),月關鍵min:2020-04-16(44.15),月↗,季↗,壓過月均(44.9375)、跳跨月均(44.9375)、壓過月關鍵(47.9)、跳跨月關鍵(47.9)
7,6582.TW,紅K,6582 申豐,85.8,,月關鍵max:2020-04-20(85.8),月↗,季↗,壓過月關鍵(85.8)、跳跨月關鍵(85.8)
7,6589.TW,紅K,6589 台康生技,34.55,,年關鍵min:2019-07-09(33.1),月↗,季↗,
7,6669.TW,綠K,6669 緯穎,651.0,,月關鍵min:2020-04-13(661.0),月↗,季－,
7,8016.TW,紅K,8016 矽創,133.5,,月關鍵max:2020-04-07(133.0),月關鍵min:2020-04-20(133.5),月↗,季↘,壓過月關鍵(133.0)、跳跨月關鍵(133.0)
7,8028.TW,紅K,8028 昇陽半導體,51.5,,月關鍵max:2020-04-08(51.2),月↗,季↘,壓過月關鍵(51.2)
7,8039.TW,紅K,8039 台虹,47.6,,月關鍵max:2020-04-20(47.6),月↗,季↘,壓過季均(45.315)、壓過月關鍵(47.6)、跳跨月關鍵(47.6)
7,8069.TW,綠K,8069 元太,28.85,,月關鍵min:2020-04-20(28.85),季關鍵max:2020-01-30(29.0),月↗,季↘,壓過季關鍵(29.0)
7,8088.TW,紅K,8088 品安,29.65,,月關鍵max:2020-04-20(29.65),月↗,季↗,壓過月關鍵(29.65)、跳跨月關鍵(29.65)
7,8112.TW,紅K,8112 至上,35.35,,月關鍵max:2020-04-16(35.2),月↗,季↗,壓過月關鍵(35.2)、跳跨月關鍵(35.2)
7,8131.TW,紅K,8131 福懋科,36.95,,年關鍵max:2019-07-15(36.95),月↗,季↘,壓過季均(36.685)、跳跨季均(36.685)、壓過年關鍵(36.95)、跳跨年關鍵(36.95)
7,8210.TW,紅K,8210 勤誠,85.1,,月關鍵max:2020-04-07(84.4),月↗,季↘,壓過月關鍵(84.4)、跳跨月關鍵(84.4)
7,8358.TW,紅K,8358 金居,34.9,,月關鍵max:2020-04-13(34.8),月↗,季↘,壓過月關鍵(34.8)、跳跨月關鍵(34.8)
7,8996.TW,綠K,8996 高力,61.8,,月關鍵min:2020-04-20(61.8),月↗,季↘,
7,9904.TW,紅K,9904 寶成,28.9,,月關鍵min:2020-04-20(28.9),月↗,季↘,
7,9935.TW,紅K,9935 慶豐富,23.65,,年關鍵min:2019-04-25(23.1),月↗,季↘,壓過月均(22.0675)
