7,1434.TW,綠K,1434 福懋,31.9,,月關鍵min:2020-04-10(32.1),月↗,季↘,壓過季均(32.5)
7,1515.TW,紅K,1515 力山,60.5,,月關鍵max:2020-04-17(60.5),月↗,季↘,壓過月關鍵(60.5)、跳跨月關鍵(60.5)
7,1589.TW,紅K,1589 永冠-KY,59.9,,季關鍵min:2020-02-06(57.6),月↗,季↘,壓過年均(59.0765)、跳跨年均(59.0765)
7,1720.TW,綠K,1720 生達,36.2,,季關鍵max:2020-01-30(37.1),月↗,季↗,壓過季關鍵(37.1)、跳跨季關鍵(37.1)
7,2231.TW,綠K,2231 為升,145.0,,月關鍵max:2020-04-16(145.5),月↗,季↘,壓過月關鍵(145.5)、跳跨月關鍵(145.5)
7,2327.TW,綠K,2327 國巨,339.5,,月關鍵max:2020-04-15(343.5),月↗,季↘,壓過月關鍵(343.5)
7,2337.TW,綠K,2337 旺宏,31.3,,月關鍵max:2020-04-08(31.4),月↗,季↘,壓過月關鍵(31.4)、跳跨月關鍵(31.4)
7,2354.TW,綠K,2354 鴻準,54.5,,月關鍵max:2020-04-09(54.8),月↗,季↘,壓過月關鍵(54.8)
7,2375.TW,綠K,2375 凱美,33.75,,月關鍵max:2020-04-09(33.95),月↗,季↘,壓過月關鍵(33.95)、跳跨月關鍵(33.95)
7,2375.TW,綠K,2375 凱美,33.75,,月關鍵max:2020-04-09(33.95),月↗,季↘,壓過月關鍵(33.95)、跳跨月關鍵(33.95)
7,2376.TW,綠K,2376 技嘉,53.2,,年關鍵max:2019-06-27(53.4),月↗,季↗,壓過年關鍵(53.4)、跳跨年關鍵(53.4)
7,2385.TW,綠K,2385 群光,81.8,,月關鍵max:2020-04-17(81.8),月↗,季↘,跳跨季均(81.7767)、壓過月關鍵(81.8)、跳跨月關鍵(81.8)
7,2388.TW,綠K,2388 威盛,30.45,,月關鍵max:2020-04-16(30.45),月↗,季↘,壓過月關鍵(30.45)、跳跨月關鍵(30.45)
7,2408.TW,綠K,2408 南亞科,61.1,,月關鍵max:2020-04-07(62.0),月關鍵min:2020-04-10(62.0),月↗,季↘,壓過月關鍵(62.0)
7,2412.TW,綠K,2412 中華電,108.5,,季關鍵max:2020-01-30(108.5),季關鍵min:2020-02-11(108.5),月↗,季－,跳跨季均(108.15)、壓過季關鍵(108.5)、跳跨季關鍵(108.5)
7,2439.TW,綠K,2439 美律,132.0,,月關鍵min:2020-04-16(134.0),月↗,季↘,
7,2448.TW,紅K,2448 晶電,32.6,,月關鍵max:2020-04-17(32.6),月↗,季↘,壓過月關鍵(32.6)、跳跨月關鍵(32.6)
7,2449.TW,綠K,2449 京元電子,35.6,,月關鍵max:2020-04-16(36.35),季關鍵min:2020-01-13(37.4),月↗,季↘,壓過月關鍵(36.35)、跳跨月關鍵(36.35)
7,2451.TW,紅K,2451 創見,69.9,,月關鍵max:2020-04-17(69.9),月↗,季↘,壓過月關鍵(69.9)、跳跨月關鍵(69.9)
7,2455.TW,綠K,2455 全新,86.0,,月關鍵max:2020-04-17(86.0),月↗,季↘,壓過月關鍵(86.0)、跳跨月關鍵(86.0)
7,2456.TW,綠K,2456 奇力新,100.0,,月關鍵max:2020-04-15(103.0),月↗,季↘,壓過季均(106.375)、壓過月關鍵(103.0)、跳跨月關鍵(103.0)
7,2472.TW,紅K,2472 立隆電,39.0,,月關鍵max:2020-04-17(39.0),月↗,季↘,壓過月關鍵(39.0)、跳跨月關鍵(39.0)
7,2474.TW,綠K,2474 可成,217.0,,年關鍵min:2019-06-28(222.5),月↗,季↘,
7,2915.TW,綠K,2915 潤泰全,66.4,,月關鍵min:2020-04-10(68.0),季關鍵max:2020-01-30(68.0),月↗,季↘,跳跨月均(67.08)、壓過季關鍵(68.0)
7,3003.TW,綠K,3003 健和興,37.5,,月關鍵max:2020-04-16(38.0),月↗,季↘,壓過季均(38.6033)、壓過月關鍵(38.0)、跳跨月關鍵(38.0)
7,3016.TW,綠K,3016 嘉晶,51.5,,季關鍵max:2020-01-15(53.0),月↗,季↗,壓過季關鍵(53.0)
7,3019.TW,綠K,3019 亞光,69.2,,月關鍵max:2020-04-14(69.7),月↗,季↘,壓過月關鍵(69.7)、跳跨月關鍵(69.7)
7,3026.TW,綠K,3026 禾伸堂,107.0,,季關鍵max:2020-02-07(108.5),季關鍵min:2020-01-20(108.5),月↗,季?,壓過季關鍵(108.5)
7,3034.TW,綠K,3034 聯詠,185.0,,月關鍵min:2020-04-10(185.0),月↗,季↘,
7,3042.TW,綠K,3042 晶技,62.6,,月關鍵max:2020-04-17(62.6),月↗,季↗,壓過月關鍵(62.6)、跳跨月關鍵(62.6)
7,3081.TW,綠K,3081 聯亞,258.0,,月關鍵max:2020-04-17(258.0),月關鍵min:2020-04-01(260.0),季關鍵min:2020-02-11(268.0),月↗,季↘,跳跨年均(260.7521)、壓過月關鍵(258.0)、跳跨月關鍵(258.0)
7,3131.TW,綠K,3131 弘塑,216.5,,月關鍵max:2020-04-17(216.5),月↗,季↘,壓過月關鍵(216.5)、跳跨月關鍵(216.5)
7,3189.TW,綠K,3189 景碩,47.25,,月關鍵max:2020-04-14(47.45),月↗,季↘,壓過月關鍵(47.45)、跳跨月關鍵(47.45)
7,3227.TW,綠K,3227 原相,171.0,,月關鍵max:2020-04-15(171.5),季關鍵max:2020-02-07(176.5),月↗,季↗,壓過月關鍵(171.5)+季關鍵(176.5)、跳跨月關鍵(171.5)
7,3289.TW,綠K,3289 宜特,39.35,,月關鍵max:2020-04-17(39.35),季關鍵max:2020-01-30(40.4),年關鍵min:2019-06-12(40.0),月↗,季↘,壓過年均(41.3692)、壓過月關鍵(39.35)+季關鍵(40.4)、跳跨月關鍵(39.35)
7,3293.TW,綠K,3293 鈊象,547.0,,月關鍵min:2020-04-16(587.0),月↗,季↗,跳跨月均(550.85)
7,3317.TW,綠K,3317 尼克森,35.0,,月關鍵max:2020-04-16(35.35),月↗,季↘,壓過月關鍵(35.35)、跳跨月關鍵(35.35)
7,3338.TW,綠K,3338 泰碩,88.1,,季關鍵min:2020-01-17(89.5),月↗,季－,
7,3374.TW,綠K,3374 精材,79.4,,月關鍵max:2020-04-17(79.4),月↗,季↘,壓過月關鍵(79.4)、跳跨月關鍵(79.4)
7,3376.TW,綠K,3376 新日興,128.0,,月關鍵min:2020-04-16(130.0),季關鍵min:2020-01-09(129.0),月↗,季－,壓過季均(132.86)
7,3413.TW,綠K,3413 京鼎,142.0,,月關鍵max:2020-04-17(142.0),月↗,季↘,跳跨年均(141.0237)、壓過月關鍵(142.0)、跳跨月關鍵(142.0)
7,3443.TW,綠K,3443 創意,243.5,,月關鍵max:2020-04-17(243.5),月↗,季↘,壓過月關鍵(243.5)、跳跨月關鍵(243.5)
7,3450.TW,綠K,3450 聯鈞,68.1,,月關鍵max:2020-04-16(69.1),季關鍵max:2020-01-14(70.3),月↗,季↗,壓過月關鍵(69.1)+季關鍵(70.3)、跳跨月關鍵(69.1)
7,3455.TW,紅K,3455 由田,50.0,,月關鍵max:2020-04-17(50.0),月↗,季↘,壓過季均(49.4558)、跳跨季均(49.4558)、壓過月關鍵(50.0)、跳跨月關鍵(50.0)
7,3483.TW,綠K,3483 力致,55.8,,月關鍵max:2020-04-14(60.0),季關鍵max:2020-02-13(57.5),季關鍵min:2020-02-10(55.8),月↗,季↘,壓過月關鍵(60.0)+季關鍵(57.5)、跳跨季關鍵(57.5)
7,3533.TW,綠K,3533 嘉澤,310.5,,月關鍵max:2020-04-17(310.5),月↗,季↘,壓過月關鍵(310.5)、跳跨月關鍵(310.5)
7,3630.TW,綠K,3630 新鉅科,53.0,,月關鍵max:2020-04-15(53.2),月↗,季↘,壓過月關鍵(53.2)
7,3661.TW,綠K,3661 世芯-KY,238.0,,月關鍵max:2020-04-17(238.0),月↗,季－,壓過月關鍵(238.0)、跳跨月關鍵(238.0)
7,3680.TW,綠K,3680 家登,151.0,,月關鍵max:2020-04-17(151.0),月↗,季↘,壓過月關鍵(151.0)、跳跨月關鍵(151.0)
7,3706.TW,綠K,3706 神達,30.85,,年關鍵min:2019-04-22(31.45),月↗,季↗,
7,4133.TW,紅K,4133 亞諾法,36.55,,月關鍵max:2020-03-19(33.5),月關鍵min:2020-04-01(33.55),月↗,季↗,壓過月均(34.0625)+季均(33.4367)、跳跨月均(34.0625)+季均(33.4367)、壓過月關鍵(33.5)、跳跨月關鍵(33.5)
7,4540.TW,紅K,4540 全球傳動,50.3,,月關鍵max:2020-04-17(50.3),季關鍵max:2020-01-30(46.75),月↗,季↘,跳跨季均(46.04)、壓過月關鍵(50.3)+季關鍵(46.75)、跳跨月關鍵(50.3)+季關鍵(46.75)
7,4735.TW,綠K,4735 豪展,67.8,,月關鍵max:2020-04-17(67.8),月↗,季↗,壓過月關鍵(67.8)、跳跨月關鍵(67.8)
7,4908.TW,綠K,4908 前鼎,33.3,,月關鍵max:2020-04-17(33.3),月↗,季↘,壓過季均(34.2258)、壓過月關鍵(33.3)、跳跨月關鍵(33.3)
7,4915.TW,紅K,4915 致伸,47.75,,月關鍵max:2020-04-17(47.75),月↗,季↘,壓過季均(47.5592)、跳跨季均(47.5592)、壓過月關鍵(47.75)、跳跨月關鍵(47.75)
7,4919.TW,綠K,4919 新唐,37.25,,月關鍵max:2020-04-17(37.25),月↗,季↘,壓過季均(38.4483)、壓過月關鍵(37.25)、跳跨月關鍵(37.25)
7,4938.TW,綠K,4938 和碩,65.1,,季關鍵min:2020-02-13(65.4),月↗,季↘,
7,4953.TW,綠K,4953 緯軟,74.8,,月關鍵max:2020-04-16(75.9),月↗,季↘,壓過月關鍵(75.9)、跳跨月關鍵(75.9)
7,5215.TW,綠K,5215 科嘉-KY,67.0,,月關鍵max:2020-04-08(69.7),月↗,季↗,壓過月關鍵(69.7)、跳跨月關鍵(69.7)
7,5483.TW,綠K,5483 中美晶,86.4,,月關鍵max:2020-04-08(86.9),月↗,季↘,跳跨年均(87.4233)、壓過月關鍵(86.9)、跳跨月關鍵(86.9)
7,6147.TW,紅K,6147 頎邦,56.0,,年關鍵max:2019-05-23(55.6),月↗,季↘,壓過年關鍵(55.6)、跳跨年關鍵(55.6)
7,6173.TW,綠K,6173 信昌電,55.7,,月關鍵max:2020-04-16(57.0),月↗,季↘,跳跨季均(56.5725)、壓過月關鍵(57.0)、跳跨月關鍵(57.0)
7,6196.TW,綠K,6196 帆宣,71.2,,月關鍵max:2020-04-17(71.2),月↗,季↘,壓過月關鍵(71.2)、跳跨月關鍵(71.2)
7,6223.TW,綠K,6223 旺矽,62.6,,月關鍵max:2020-04-17(62.6),月↗,季↘,壓過月關鍵(62.6)、跳跨月關鍵(62.6)
7,6231.TW,綠K,6231 系微,59.5,,月關鍵max:2020-04-16(61.3),季關鍵max:2020-02-12(61.6),月↗,季↘,壓過月關鍵(61.3)+季關鍵(61.6)、跳跨月關鍵(61.3)
7,6245.TW,紅K,6245 立端,54.7,,月關鍵max:2020-04-17(54.7),月↗,季↘,跳跨季均(54.1758)、壓過月關鍵(54.7)、跳跨月關鍵(54.7)
7,6257.TW,綠K,6257 矽格,34.65,,季關鍵min:2020-02-10(34.8),月↗,季↘,
7,6271.TW,紅K,6271 同欣電,117.5,,月關鍵max:2020-04-17(117.5),月↗,季↘,壓過月關鍵(117.5)、跳跨月關鍵(117.5)
7,6426.TW,綠K,6426 統新,112.0,,月關鍵max:2020-04-15(113.0),月↗,季↘,壓過年均(118.6075)、壓過月關鍵(113.0)、跳跨月關鍵(113.0)
7,6438.TW,綠K,6438 迅得,54.4,,月關鍵max:2020-04-17(54.4),月↗,季↘,壓過月關鍵(54.4)、跳跨月關鍵(54.4)
7,6451.TW,綠K,6451 訊芯-KY,108.0,,月關鍵max:2020-04-17(108.0),月↗,季↘,壓過月關鍵(108.0)、跳跨月關鍵(108.0)
7,6457.TW,綠K,6457 紘康,66.8,,月關鍵max:2020-04-17(66.8),月↗,季↗,壓過月關鍵(66.8)、跳跨月關鍵(66.8)
7,6462.TW,綠K,6462 神盾,161.0,,月關鍵min:2020-04-13(163.5),月↗,季↘,
7,6504.TW,紅K,6504 南六,173.5,,月關鍵max:2020-04-17(173.5),月↗,季↗,壓過月關鍵(173.5)、跳跨月關鍵(173.5)
7,8016.TW,綠K,8016 矽創,132.5,,月關鍵max:2020-04-07(133.0),年關鍵min:2019-04-22(134.0),月↗,季↘,壓過月關鍵(133.0)、跳跨月關鍵(133.0)
7,8039.TW,紅K,8039 台虹,45.9,,季關鍵max:2020-01-30(45.9),年關鍵max:2019-05-03(45.85),月↗,季↘,壓過季均(45.385)、跳跨季均(45.385)、壓過季關鍵(45.9)+年關鍵(45.85)、跳跨季關鍵(45.9)+年關鍵(45.85)
7,8086.TW,綠K,8086 宏捷科,88.1,,月關鍵max:2020-04-17(88.1),月↗,季↘,壓過月關鍵(88.1)、跳跨月關鍵(88.1)
7,8112.TW,綠K,8112 至上,34.95,,月關鍵max:2020-04-16(35.2),月↗,季↗,壓過月關鍵(35.2)、跳跨月關鍵(35.2)
7,8155.TW,綠K,8155 博智,161.0,,月關鍵max:2020-04-16(173.5),月↗,季↗,壓過月關鍵(173.5)、跳跨月關鍵(173.5)
7,8358.TW,綠K,8358 金居,34.75,,月關鍵max:2020-04-13(34.8),月↗,季↘,壓過月關鍵(34.8)、跳跨月關鍵(34.8)
7,8436.TW,綠K,8436 大江,233.5,,月關鍵max:2020-04-17(233.5),月↗,季↘,壓過月關鍵(233.5)、跳跨月關鍵(233.5)
7,8996.TW,綠K,8996 高力,61.2,,月關鍵min:2020-04-16(63.0),月↗,季↘,
7,9921.TW,紅K,9921 巨大,141.5,,月關鍵min:2020-03-30(138.5),月↗,季↘,跳跨月關鍵(134.5)
7,9945.TW,綠K,9945 潤泰新,41.8,,月關鍵max:2020-04-01(42.0),季關鍵max:2020-01-30(42.1),月↗,季↘,壓過月關鍵(42.0)+季關鍵(42.1)
7,9958.TW,綠K,9958 世紀鋼,81.8,,月關鍵min:2020-04-14(82.2),月↗,季↗,
