﻿1,0057 富邦摩台,60.1,,多頭排列,月↘,-0.15,季↗,0.05,年↗,0.11,近期短噴,多頭排列,月↘,-0.15,季↗,0.05,年↗,0.11,近期短噴
2,1339 昭輝,50.2,,多頭排列,月↘,-0.29,季↗,0.17,年↗,0.16,,多頭排列,月↘,-0.29,季↗,0.17,年↗,0.16,
3,1570 力肯,13.9,,多頭排列,月↘,-0.09,季↗,0.18,年↗,0.04,近期短噴,多頭排列,月↘,-0.09,季↗,0.18,年↗,0.04,近期短噴
4,1609 大亞,11.05,,多頭排列,月↘,-0.15,季↗,0.08,年↗,0.03,,多頭排列,月↘,-0.15,季↗,0.08,年↗,0.03,
5,1618 合機,8.86,,多頭排列,月↘,-0.3,季↗,0.02↔↔0),年↗,0.02↔↔0.04),近期短噴,多頭排列,月↘,-0.3,季↗,0.02↔↔0),年↗,0.02↔↔0.04),近期短噴
6,2357 華碩,221.5,,多頭排列,月↘,-0.23,季↗,0.07,年↘,-0.03↔↔-0.04),近期短噴,多頭排列,月↘,-0.23,季↗,0.07,年↘,-0.03↔↔-0.04),近期短噴
7,2419 仲琦,23.95,,多頭排列,月↘,-0.9,季↗,0.41,年↗,0.05,,多頭排列,月↘,-0.9,季↗,0.41,年↗,0.05,
8,2421 建準,43.1,,多頭排列,月↘,-0.57,季↗,0.08,年↗,0.06,近期短噴,多頭排列,月↘,-0.57,季↗,0.08,年↗,0.06,近期短噴
9,2428 興勤,89.9,,多頭排列,月↘,-0.44,季↗,0.14,年↗,0.06,,多頭排列,月↘,-0.44,季↗,0.14,年↗,0.06,
10,2433 互盛電,54.0,,多頭排列,月↘,-0.21,季↗,0.15,年↗,0.1,近期短噴,多頭排列,月↘,-0.21,季↗,0.15,年↗,0.1,近期短噴
11,2438 翔耀,7.3,,多頭排列,月↘,-0.75,季↗,0.31,年↗,0.01,,多頭排列,月↘,-0.75,季↗,0.31,年↗,0.01,
12,2536 宏普,22.5,,多頭排列,月↘,-0.48,季↗,0.02,年↗,0.06,近期短噴,多頭排列,月↘,-0.48,季↗,0.02,年↗,0.06,近期短噴
13,2643 捷迅,37.0,,多頭排列,月↘,-0.46,季↗,0.12,年↗,0.09,近期短噴,多頭排列,月↘,-0.46,季↗,0.12,年↗,0.09,近期短噴
14,2885 元大金,20.25,,多頭排列,月↘,-0.04,季↗,0.08,年↗,0.07,近期短噴,多頭排列,月↘,-0.04,季↗,0.08,年↗,0.07,近期短噴
15,3015 全漢,21.0,,多頭排列,月↘,-0.28,季↗,0.0↔↔-0.03),年↗,0.05,,多頭排列,月↘,-0.28,季↗,0.0↔↔-0.03),年↗,0.05,
16,3019 亞光,88.0,,多頭排列,月↘,-0.9,季↗,0.05,年↗,0.07,,多頭排列,月↘,-0.9,季↗,0.05,年↗,0.07,
17,3530 晶相光,98.3,,多頭排列,月↘,-0.11,季↗,0.07,年↗,0.05,,多頭排列,月↘,-0.11,季↗,0.07,年↗,0.05,
18,3605 宏致,27.8,,多頭排列,月↘,-0.71,季↗,0.05,年↗,0.08,近期短噴,多頭排列,月↘,-0.71,季↗,0.05,年↗,0.08,近期短噴
19,3622 洋華,19.85,,多頭排列,月↘,-0.6,季↗,0.05↔↔0.02),年↗,0.1,,多頭排列,月↘,-0.6,季↗,0.05↔↔0.02),年↗,0.1,
20,3661 世芯-KY,219.0,,多頭排列,月↘,-0.28↔↔-0.01),季↗,0.18,年↗,0.44,,多頭排列,月↘,-0.28↔↔-0.01),季↗,0.18,年↗,0.44,
21,3665 貿聯-KY,220.0,,多頭排列,月↘,-0.1↔↔-0.04),季↗,0.08,年↗,0.08,,多頭排列,月↘,-0.1↔↔-0.04),季↗,0.08,年↗,0.08,
22,4755 三福化,47.0,,多頭排列,月↘,-0.31,季↗,0.14,年↗,0.07,,多頭排列,月↘,-0.31,季↗,0.14,年↗,0.07,
23,5014 建錩,9.28,,多頭排列,月↘,-0.04↔↔0),季↗,0.05,年↗,0.02,,多頭排列,月↘,-0.04↔↔0),季↗,0.05,年↗,0.02,
24,5302 太欣,5.77,,多頭排列,月↘,-0.1,季↗,0.12,年↗,0.04,,多頭排列,月↘,-0.1,季↗,0.12,年↗,0.04,
25,5328 華容,9.86,,多頭排列,月↘,-0.18,季↗,0.61,年↗,0.08,,多頭排列,月↘,-0.18,季↗,0.61,年↗,0.08,
26,5522 遠雄,39.3,,多頭排列,月↘,-0.11,季↗,0.03,年↗,0.02,近期短噴,多頭排列,月↘,-0.11,季↗,0.03,年↗,0.02,近期短噴
27,5536 聖暉,178.0,,多頭排列,月↘,-0.21,季↗,0.07,年↗,0.02↔↔0.01),近期短噴,多頭排列,月↘,-0.21,季↗,0.07,年↗,0.02↔↔0.01),近期短噴
28,6116 彩晶,7.69,,多頭排列,月↘,-0.25,季↗,0.22,年↗,0.05,,多頭排列,月↘,-0.25,季↗,0.22,年↗,0.05,
29,6126 信音,13.0,,多頭排列,月↘,-0.69,季↗,0.01,年↗,0.09,近期短噴,多頭排列,月↘,-0.69,季↗,0.01,年↗,0.09,近期短噴
30,6127 九豪,15.5,,多頭排列,月↘,-0.7,季↗,0.1,年↘,-0.04,,多頭排列,月↘,-0.7,季↗,0.1,年↘,-0.04,
31,6612 奈米醫材,77.9,,多頭排列,月↘,-0.07,季↗,0.19,年↗,0.07,近期短噴,多頭排列,月↘,-0.07,季↗,0.19,年↗,0.07,近期短噴
32,8110 華東,11.25,,多頭排列,月↘,-0.2,季↗,0.25,年↗,0.0,近期短噴,多頭排列,月↘,-0.2,季↗,0.25,年↗,0.0,近期短噴
33,8182 加高,27.2,,多頭排列,月↘,-0.64,季↗,0.37,年↗,0.2,,多頭排列,月↘,-0.64,季↗,0.37,年↗,0.2,
34,8299 群聯,330.5,,多頭排列,月↘,-0.14,季↗,0.26,年↗,0.11,,多頭排列,月↘,-0.14,季↗,0.26,年↗,0.11,
35,9938 百和,82.1,,多頭排列,月↘,-0.12,季↗,0.04↔↔0.02),年↗,0.07,,多頭排列,月↘,-0.12,季↗,0.04↔↔0.02),年↗,0.07,
